%YAML 1.1
%TAG !u! tag:unity3d.com,2011:
--- !u!114 &11400000
MonoBehaviour:
  m_ObjectHideFlags: 0
  m_CorrespondingSourceObject: {fileID: 0}
  m_PrefabInstance: {fileID: 0}
  m_PrefabAsset: {fileID: 0}
  m_GameObject: {fileID: 0}
  m_Enabled: 1
  m_EditorHideFlags: 0
  m_Script: {fileID: 11500000, guid: 95e66c6366d904e98bc83428217d4fd7, type: 3}
  m_Name: CapsuleScaling
  m_EditorClassIdentifier: 
  _data:
    _json: '{"graph":{"variables":{"Kind":"Flow","collection":{"$content":[{"name":"axes","value":{"x":0.0,"y":0.0,"z":0.0,"$type":"UnityEngine.Vector3"},"typeHandle":{"Identification":"UnityEngine.Vector3,
      UnityEngine.CoreModule, Version=0.0.0.0, Culture=neutral, PublicKeyToken=null","$version":"A"},"$version":"A"},{"name":"scaleUnits","value":{"$content":0.0,"$type":"System.Single"},"typeHandle":{"Identification":"System.Single,
      mscorlib, Version=4.0.0.0, Culture=neutral, PublicKeyToken=b77a5c561934e089","$version":"A"},"$version":"A"}],"$version":"A"},"$version":"A"},"controlInputDefinitions":[],"controlOutputDefinitions":[],"valueInputDefinitions":[],"valueOutputDefinitions":[],"title":"CapsuleScaling","summary":null,"pan":{"x":33.54184,"y":169.7501},"zoom":1.0,"elements":[{"coroutine":false,"defaultValues":{},"position":{"x":-254.0,"y":-92.0},"guid":"f4dfdd42-9e97-4a6b-ac0d-147040fc66d5","$version":"A","$type":"Unity.VisualScripting.Update","$id":"11"},{"chainable":false,"member":{"name":"ClampMagnitude","parameterTypes":["UnityEngine.Vector3","System.Single"],"targetType":"UnityEngine.Vector3","targetTypeName":"UnityEngine.Vector3","$version":"A"},"defaultValues":{"%vector":{"x":0.0,"y":0.0,"z":0.0,"$type":"UnityEngine.Vector3"},"%maxLength":{"$content":1.0,"$type":"System.Single"}},"position":{"x":3.0,"y":-102.0},"guid":"4ff48510-9bcc-42c9-b890-75a37729ef63","$version":"A","$type":"Unity.VisualScripting.InvokeMember","$id":"13"},{"specifyFallback":false,"kind":"Object","defaultValues":{"name":{"$content":"axes","$type":"System.String"},"object":null},"position":{"x":-268.0,"y":72.0},"guid":"f5298fd0-1441-4bbf-a99e-0ef1442f0674","$version":"A","$type":"Unity.VisualScripting.GetVariable","$id":"16"},{"specifyFallback":false,"kind":"Object","defaultValues":{"name":{"$content":"scaleUnits","$type":"System.String"},"object":null},"position":{"x":-74.0,"y":186.0},"guid":"b12c0ee7-eded-4ef2-b929-d8ab7dca63cf","$version":"A","$type":"Unity.VisualScripting.GetVariable","$id":"18"},{"member":{"name":"deltaTime","parameterTypes":null,"targetType":"UnityEngine.Time","targetTypeName":"UnityEngine.Time","$version":"A"},"defaultValues":{},"position":{"x":-267.0,"y":351.0},"guid":"29cb377f-8373-45d6-b678-ca3456121dc5","$version":"A","$type":"Unity.VisualScripting.GetMember","$id":"20"},{"defaultValues":{},"position":{"x":279.0,"y":88.0},"guid":"228cf998-c6f6-40b7-99bf-93602b097d06","$version":"A","$type":"Unity.VisualScripting.GenericMultiply","$id":"23"},{"defaultValues":{},"position":{"x":98.0,"y":290.0},"guid":"3022aa58-cac0-446c-9360-abdfeeea5225","$version":"A","$type":"Unity.VisualScripting.GenericMultiply","$id":"25"},{"chainable":false,"member":{"name":"Translate","parameterTypes":["UnityEngine.Vector3"],"targetType":"UnityEngine.Transform","targetTypeName":"UnityEngine.Transform","$version":"A"},"defaultValues":{"target":null,"%translation":{"x":0.0,"y":0.0,"z":0.0,"$type":"UnityEngine.Vector3"}},"position":{"x":314.0,"y":-129.0},"guid":"3c743697-9a9f-4925-ac5d-1255c46f0560","$version":"A","$type":"Unity.VisualScripting.InvokeMember","$id":"27"},{"sourceUnit":{"$ref":"11"},"sourceKey":"trigger","destinationUnit":{"$ref":"13"},"destinationKey":"enter","guid":"74e0882a-42cf-485a-93d1-c0d68ab77a79","$type":"Unity.VisualScripting.ControlConnection"},{"sourceUnit":{"$ref":"13"},"sourceKey":"exit","destinationUnit":{"$ref":"27"},"destinationKey":"enter","guid":"9631e6f0-dad7-4a5b-9a3d-1f4c2f06e5d7","$type":"Unity.VisualScripting.ControlConnection"},{"sourceUnit":{"$ref":"16"},"sourceKey":"value","destinationUnit":{"$ref":"13"},"destinationKey":"%vector","guid":"03274500-c176-44bc-8940-96ac53659499","$type":"Unity.VisualScripting.ValueConnection"},{"sourceUnit":{"$ref":"18"},"sourceKey":"value","destinationUnit":{"$ref":"25"},"destinationKey":"a","guid":"aed68e66-a43b-4205-85ca-26b51eaaf33b","$type":"Unity.VisualScripting.ValueConnection"},{"sourceUnit":{"$ref":"20"},"sourceKey":"value","destinationUnit":{"$ref":"25"},"destinationKey":"b","guid":"5baeb600-4983-4d8d-bd4f-78820938ca1f","$type":"Unity.VisualScripting.ValueConnection"},{"sourceUnit":{"$ref":"25"},"sourceKey":"product","destinationUnit":{"$ref":"23"},"destinationKey":"b","guid":"dd770f8d-5336-41d3-96ad-a7a88acb2c20","$type":"Unity.VisualScripting.ValueConnection"},{"sourceUnit":{"$ref":"13"},"sourceKey":"result","destinationUnit":{"$ref":"23"},"destinationKey":"a","guid":"344a97f7-1707-4621-9537-bd8a5ee4d432","$type":"Unity.VisualScripting.ValueConnection"},{"sourceUnit":{"$ref":"23"},"sourceKey":"product","destinationUnit":{"$ref":"27"},"destinationKey":"%translation","guid":"41a6a833-4046-4936-b68b-7a508d2c0308","$type":"Unity.VisualScripting.ValueConnection"}],"$version":"A"}}'
    _objectReferences: []
